<?xml version="1.0" encoding="utf-8"?>
<!-- Generator: Adobe Illustrator 23.0.0, SVG Export Plug-In . SVG Version: 6.00 Build 0)  -->
<svg version="1.1" id="LE_DALLY_1_" xmlns="http://www.w3.org/2000/svg" xmlns:xlink="http://www.w3.org/1999/xlink" x="0px"
	 y="0px" viewBox="0 0 400 100" style="enable-background:new 0 0 400 100;" xml:space="preserve">
<style type="text/css">
	.st0{fill:url(#SVGID_1_);}
	.st1{fill:url(#SVGID_2_);}
	.st2{fill:url(#SVGID_3_);}
	.st3{fill:url(#SVGID_4_);}
	.st4{fill:url(#SVGID_5_);}
	.st5{fill:url(#SVGID_6_);}
	.st6{fill:url(#SVGID_7_);}
	.st7{fill:url(#SVGID_8_);}
	.st8{fill:#3E5660;}
</style>
<g id="LE_DALLY">
	<g>
		
			<linearGradient id="SVGID_1_" gradientUnits="userSpaceOnUse" x1="119.9596" y1="3309.2847" x2="187.4157" y2="3302.3938" gradientTransform="matrix(1 0 0 1 0 -3264.6001)">
			<stop  offset="0" style="stop-color:#FFFFFF"/>
			<stop  offset="1" style="stop-color:#009FE3"/>
		</linearGradient>
		<path class="st0" d="M173.7,63.2v-48c4.5,1.3,8.7,3.2,12.5,5.6v39.8C182.5,61.7,178.2,62.6,173.7,63.2z"/>
		
			<linearGradient id="SVGID_2_" gradientUnits="userSpaceOnUse" x1="119.7443" y1="3307.1758" x2="187.2002" y2="3300.2852" gradientTransform="matrix(1 0 0 1 0 -3264.6001)">
			<stop  offset="0" style="stop-color:#FFFFFF"/>
			<stop  offset="1" style="stop-color:#009FE3"/>
		</linearGradient>
		<path class="st1" d="M156.6,64.4V12.6c5.1,0.1,10.3,0.7,15.1,2v48.8C166.9,64,161.7,64.3,156.6,64.4z"/>
		
			<linearGradient id="SVGID_3_" gradientUnits="userSpaceOnUse" x1="119.6787" y1="3306.5347" x2="187.1348" y2="3299.644" gradientTransform="matrix(1 0 0 1 0 -3264.6001)">
			<stop  offset="0" style="stop-color:#FFFFFF"/>
			<stop  offset="1" style="stop-color:#009FE3"/>
		</linearGradient>
		<path class="st2" d="M139.5,63.4V14.6c4.9-1.3,10-2,15.1-2v51.8C149.5,64.3,144.4,64,139.5,63.4z"/>
		
			<linearGradient id="SVGID_4_" gradientUnits="userSpaceOnUse" x1="119.5858" y1="3305.6248" x2="187.0418" y2="3298.7339" gradientTransform="matrix(1 0 0 1 0 -3264.6001)">
			<stop  offset="0" style="stop-color:#FFFFFF"/>
			<stop  offset="1" style="stop-color:#009FE3"/>
		</linearGradient>
		<path class="st3" d="M125,60.6V20.8c3.8-2.4,8-4.3,12.5-5.6v48C133,62.6,128.8,61.7,125,60.6z"/>
		
			<linearGradient id="SVGID_5_" gradientUnits="userSpaceOnUse" x1="186.1804" y1="3310.4976" x2="122.1698" y2="3323.3721" gradientTransform="matrix(1 0 0 1 0 -3264.6001)">
			<stop  offset="0" style="stop-color:#FFFFFF"/>
			<stop  offset="1" style="stop-color:#C5D300"/>
		</linearGradient>
		<path class="st4" d="M173.7,72.3v-48c4.5,1.3,8.7,3.2,12.5,5.6v39.8C182.5,70.8,178.2,71.7,173.7,72.3z"/>
		
			<linearGradient id="SVGID_6_" gradientUnits="userSpaceOnUse" x1="185.5625" y1="3307.425" x2="121.5518" y2="3320.2996" gradientTransform="matrix(1 0 0 1 0 -3264.6001)">
			<stop  offset="0" style="stop-color:#FFFFFF"/>
			<stop  offset="1" style="stop-color:#C5D300"/>
		</linearGradient>
		<path class="st5" d="M156.6,73.5V21.7c5.1,0.1,10.3,0.7,15.1,2v48.8C166.9,73.1,161.7,73.4,156.6,73.5z"/>
		
			<linearGradient id="SVGID_7_" gradientUnits="userSpaceOnUse" x1="185.1727" y1="3305.4868" x2="121.162" y2="3318.3613" gradientTransform="matrix(1 0 0 1 0 -3264.6001)">
			<stop  offset="0" style="stop-color:#FFFFFF"/>
			<stop  offset="1" style="stop-color:#C5D300"/>
		</linearGradient>
		<path class="st6" d="M139.5,72.6V23.7c4.9-1.3,10-2,15.1-2v51.8C149.5,73.4,144.4,73.1,139.5,72.6z"/>
		
			<linearGradient id="SVGID_8_" gradientUnits="userSpaceOnUse" x1="184.7512" y1="3303.3918" x2="120.7406" y2="3316.2664" gradientTransform="matrix(1 0 0 1 0 -3264.6001)">
			<stop  offset="0" style="stop-color:#FFFFFF"/>
			<stop  offset="1" style="stop-color:#C5D300"/>
		</linearGradient>
		<path class="st7" d="M125,69.7V29.9c3.8-2.4,8-4.3,12.5-5.6v48C133,71.7,128.8,70.8,125,69.7z"/>
		<g>
			<path class="st8" d="M221.3,45.4v4.8h-15.1V25.5h5.3v19.9L221.3,45.4L221.3,45.4z"/>
			<path class="st8" d="M233.5,30.3v4.9h8.6V40h-8.6v5.4h9.9v4.8h-15.3V25.5h15.3v4.8H233.5z"/>
			<path class="st8" d="M269.1,25.5h8.9c7.2,0,11.6,5.1,11.6,12.3c0,7.2-4.9,12.4-11.6,12.4h-8.9V25.5z M278.6,45.4
				c3.8,0,5.4-3.1,5.4-7.6c0-4.4-1.5-7.5-5.4-7.5h-4.2v15.1L278.6,45.4L278.6,45.4z"/>
			<path class="st8" d="M310.3,46.3h-11l-1.6,3.9h-5.9l10.1-24.7h5.9l10.1,24.7h-6L310.3,46.3z M308.4,41.8l-3.7-9l-3.7,9H308.4z"/>
			<path class="st8" d="M338.9,45.4v4.8h-15.1V25.5h5.3v19.9L338.9,45.4L338.9,45.4z"/>
			<path class="st8" d="M360.3,45.4v4.8h-15.1V25.5h5.3v19.9L360.3,45.4L360.3,45.4z"/>
			<path class="st8" d="M370,41.3l-9.7-15.8h6.2l6.1,10.8l6.4-10.8h5.9l-9.6,15.8v8.9H370L370,41.3L370,41.3z"/>
		</g>
		<g>
			<path class="st8" d="M209.3,65.9l2,2.8h-1l-1.9-2.7H207v2.7h-0.9v-7.6h2.4c1.4,0,2.5,1,2.5,2.4C211.1,64.8,210.5,65.7,209.3,65.9
				z M207.1,65.2h1.3c1.2,0,1.8-0.6,1.8-1.6c0-1-0.6-1.6-1.8-1.6h-1.3V65.2z"/>
			<path class="st8" d="M215.8,62v2.5h2.8v0.8h-2.8v2.6h3.2v0.8H215v-7.6h4.1V62C219.1,62,215.8,62,215.8,62z M217.4,60.5h-0.6
				l1.3-1.6l0.9,0.2L217.4,60.5z"/>
			<path class="st8" d="M221.9,67.7l0.5-0.7c0.6,0.6,1.4,1.1,2.5,1.1c1.2,0,1.8-0.6,1.8-1.3c0-0.8-0.7-1.1-2-1.4
				c-1.5-0.4-2.5-0.8-2.5-2.1c0-1.2,1.1-2.2,2.5-2.2c1.1,0,2,0.4,2.7,1.1l-0.5,0.7c-0.6-0.6-1.4-1-2.2-1c-0.9,0-1.6,0.6-1.6,1.3
				c0,0.8,0.7,1.1,2,1.4c1.4,0.3,2.5,0.9,2.5,2.2c0,1.2-0.9,2.2-2.7,2.2C223.7,68.9,222.7,68.4,221.9,67.7z"/>
			<path class="st8" d="M230.9,61.2h0.9v7.6h-0.9V61.2z"/>
			<path class="st8" d="M235.7,61.2h2.6c2.2,0,3.1,1.6,3.1,3.8c0,2.2-1.1,3.8-3.1,3.8h-2.6V61.2z M238.3,68c1.9,0,2.3-1.2,2.3-3
				c0-1.8-0.4-3-2.3-3h-1.7v6L238.3,68L238.3,68z"/>
			<path class="st8" d="M320.1,61.2h2.6c2.2,0,3.1,1.6,3.1,3.8c0,2.2-1.1,3.8-3.1,3.8h-2.6V61.2L320.1,61.2z M322.7,68
				c1.9,0,2.3-1.2,2.3-3c0-1.8-0.4-3-2.3-3H321v6L322.7,68L322.7,68z"/>
			<path class="st8" d="M245.7,62v2.5h2.8v0.8h-2.8v2.6h3.2v0.8h-4.1v-7.6h4.1V62C249,62,245.7,62,245.7,62z"/>
			<path class="st8" d="M252.8,61.2h0.9l4.7,6.2v-6.2h0.9v7.6h-0.9l-4.7-6.2v6.2h-0.9V61.2z"/>
			<path class="st8" d="M261.7,64.9c0-2.1,1.8-3.9,3.9-3.9c1.1,0,2,0.4,2.7,1.2l-0.6,0.6c-0.6-0.6-1.3-1-2.1-1c-1.6,0-3,1.4-3,3.1
				c0,1.7,1.4,3.1,3,3.1c0.8,0,1.6-0.4,2.1-1l0.6,0.6c-0.7,0.7-1.7,1.2-2.7,1.2C263.5,68.9,261.7,67.1,261.7,64.9z"/>
			<path class="st8" d="M272,62v2.5h2.8v0.8H272v2.6h3.2v0.8h-4.1v-7.6h4.1V62C275.2,62,272,62,272,62z"/>
			<path class="st8" d="M282.7,65.3h2.9v0.8h-2.9V65.3z"/>
			<path class="st8" d="M299.1,61.2l-3.3,7.6h-0.9l-3.3-7.6h0.9l2.9,6.5l2.9-6.5H299.1z"/>
			<path class="st8" d="M301.7,65.6v-4.4h0.8v4.4c0,1.5,0.9,2.5,2,2.5s2-1,2-2.5v-4.4h0.8v4.4c0,1.9-1.2,3.3-2.8,3.3
				S301.7,67.5,301.7,65.6z"/>
			<path class="st8" d="M315.8,67h-4.2l-0.8,1.7h-0.9l3.3-7.6h0.9l3.3,7.6h-0.9L315.8,67z M315.4,66.2l-1.8-4l-1.8,4H315.4z"/>
			<path class="st8" d="M330.4,62v2.5h2.8v0.8h-2.8v2.6h3.2v0.8h-4.1v-7.6h4.1V62C333.7,62,330.4,62,330.4,62z"/>
			<path class="st8" d="M337.5,61.2h0.9l4.7,6.2v-6.2h0.9v7.6h-0.9l-4.7-6.2v6.2h-0.9V61.2z"/>
			<path class="st8" d="M346.6,67.7l0.5-0.7c0.6,0.6,1.4,1.1,2.5,1.1c1.2,0,1.8-0.6,1.8-1.3c0-0.8-0.7-1.1-2-1.4
				c-1.5-0.4-2.5-0.8-2.5-2.1c0-1.2,1.1-2.2,2.5-2.2c1.1,0,2,0.4,2.7,1.1l-0.5,0.7c-0.6-0.6-1.4-1-2.2-1c-0.9,0-1.6,0.6-1.6,1.3
				c0,0.8,0.7,1.1,2,1.4c1.4,0.3,2.5,0.9,2.5,2.2c0,1.2-0.9,2.2-2.7,2.2C348.4,68.9,347.4,68.4,346.6,67.7z"/>
		</g>
	</g>
</g>
</svg>
